{
  "memos": [
    {
      "id": "60688ef4552e31409036c392",
      "author": "60688ef44b56eef70aa8b617",
      "name": "Lorem nostrud enim",
      "description": "Anim id minim velit veniam officia labore duis. Laborum exercitation commodo cupidatat mollit ad sunt anim excepteur. Anim sunt ex sunt consectetur. Amet magna cupidatat eu sunt do duis dolore fugiat nostrud commodo fugiat consequat esse magna. Aliquip ex dolor elit laborum non quis ullamco laboris ut eiusmod duis labore mollit dolor. Non pariatur qui irure deserunt qui adipisicing elit occaecat incididunt deserunt. Officia commodo aliquip sint voluptate laboris dolore velit duis fugiat.\r\n",
      "tags": [
        "voluptate",
        "cillum",
        "sit"
      ],
      "rating": 0,
      "createdAt": "2021-03-17T02:57:59 -03:00",
      "picture": "http://placehold.it/32x32"
    },
    {
      "id": "60688ef4552e31409036c392",
      "author": "60688ef44b56eef70aa8b617",
      "name": "AAAAAAAAAAAAAAAAAAAAAAAAAAA",
      "description": "Anim id minim velit veniam officia labore duis. Laborum exercitation commodo cupidatat mollit ad sunt anim excepteur. Anim sunt ex sunt consectetur. Amet magna cupidatat eu sunt do duis dolore fugiat nostrud commodo fugiat consequat esse magna. Aliquip ex dolor elit laborum non quis ullamco laboris ut eiusmod duis labore mollit dolor. Non pariatur qui irure deserunt qui adipisicing elit occaecat incididunt deserunt. Officia commodo aliquip sint voluptate laboris dolore velit duis fugiat.\r\n",
      "tags": [
        "voluptate",
        "cillum",
        "sit"
      ],
      "rating": 55555,
      "createdAt": "2021-03-17T02:57:59 -03:00",
      "picture": "http://placehold.it/32x32"
    },
    {
      "id": "60688ef439ffc494564b53b2",
      "author": "60688ef4bab62d2c08dca5ca",
      "name": "excepteur Lorem deserunt",
      "description": "Anim exercitation magna amet occaecat ut. Officia elit Lorem proident pariatur laborum occaecat excepteur commodo dolor amet aute nulla. Magna veniam sint fugiat Lorem quis exercitation proident eu ut proident aliqua mollit. Consectetur et reprehenderit esse dolor tempor consequat reprehenderit magna id velit. Cillum magna aliquip dolore esse veniam et. Exercitation occaecat ipsum cillum deserunt. Dolore proident in pariatur excepteur aliqua occaecat sit laboris id cupidatat nisi ad.\r\n",
      "tags": [
        "do",
        "sint",
        "consequat",
        "ipsum",
        "ad",
        "nisi",
        "sunt"
      ],
      "rating": 1,
      "createdAt": "2020-03-21T09:48:26 -03:00",
      "picture": "http://placehold.it/32x32"
    },
    {
      "id": "60688ef427241d89c102465b",
      "author": "60688ef4f5b5228df6521320",
      "name": "proident reprehenderit enim",
      "description": "Anim fugiat qui officia ut laboris. Excepteur ea Lorem dolor deserunt exercitation aliquip ad nisi non eu do consectetur tempor veniam. Amet nostrud aliqua laboris tempor adipisicing proident adipisicing magna proident incididunt. Enim consectetur ullamco sint esse in laboris aliqua culpa nulla excepteur ex deserunt. Laborum amet amet ea sunt id ad cillum eiusmod nulla officia. Voluptate adipisicing quis consequat aliqua dolor quis commodo voluptate reprehenderit nulla dolor.\r\n",
      "tags": [
        "excepteur"
      ],
      "rating": 2,
      "createdAt": "2020-12-21T05:20:11 -03:00",
      "picture": "http://placehold.it/32x32"
    },
    {
      "id": "60688ef461c610df567cb7b8",
      "author": "60688ef4482dc243eadd3070",
      "name": "esse esse eiusmod",
      "description": "Officia et labore tempor ullamco et est veniam quis amet commodo irure exercitation. Consectetur ad adipisicing officia ex. Velit eu ut quis anim non nostrud cillum est aliqua enim sunt. Nisi et incididunt nisi enim ex.\r\n",
      "tags": [
        "sint",
        "laboris",
        "fugiat",
        "quis",
        "deserunt",
        "aliquip",
        "consectetur"
      ],
      "rating": 2,
      "createdAt": "2021-01-16T04:55:07 -03:00",
      "picture": "http://placehold.it/32x32"
    },
    {
      "id": "60688ef40c7fd025dd4b4f57",
      "author": "60688ef44fd302d951ddff44",
      "name": "sint ipsum ea",
      "description": "Laborum non amet ipsum ullamco laboris sunt voluptate tempor. Anim aliqua sit sit velit. Labore anim voluptate magna dolor id sit culpa commodo sit. Pariatur in ea et amet nisi esse ut exercitation ea. Magna aliqua Lorem cupidatat nulla dolor sint nulla nulla excepteur laboris sint incididunt. Aliquip consectetur ipsum non consequat ullamco amet duis mollit sit velit exercitation eu sunt sit.\r\n",
      "tags": [
        "reprehenderit",
        "duis",
        "nulla",
        "labore",
        "exercitation",
        "veniam",
        "ut"
      ],
      "rating": 3,
      "createdAt": "2020-03-15T05:48:13 -03:00",
      "picture": "http://placehold.it/32x32"
    },
    {
      "id": "60688ef46cd08cc61d5def18",
      "author": "60688ef4e577e5096cfdc465",
      "name": "exercitation fugiat ullamco",
      "description": "Sunt sit sint excepteur laborum ipsum reprehenderit consectetur labore quis. Reprehenderit excepteur dolor ipsum deserunt dolor id adipisicing excepteur consequat labore aliquip aute exercitation. Sunt cupidatat commodo incididunt dolore in nisi ea Lorem ullamco. Enim labore consectetur nulla irure dolor nisi dolor occaecat mollit.\r\n",
      "tags": [
        "pariatur",
        "enim",
        "occaecat",
        "et",
        "eiusmod",
        "deserunt",
        "consequat"
      ],
      "rating": 4,
      "createdAt": "2021-01-17T03:00:41 -03:00",
      "picture": "http://placehold.it/32x32"
    },
    {
      "id": "60688ef418977d123ade7b66",
      "author": "60688ef4a2c4000c03e04f33",
      "name": "minim veniam ex",
      "description": "In excepteur irure veniam quis est irure. Laborum do nulla consectetur ad laboris officia. Excepteur amet tempor exercitation incididunt duis elit reprehenderit. Ipsum ea velit cupidatat do dolore nulla magna elit aute sint laborum.\r\n",
      "tags": [
        "pariatur",
        "sunt",
        "deserunt"
      ],
      "rating": 0,
      "createdAt": "2020-09-27T04:12:39 -03:00",
      "picture": "http://placehold.it/32x32"
    },
    {
      "id": "60688ef488cee78df1d31a7f",
      "author": "60688ef4df5b1ad67e614a37",
      "name": "ea tempor ad",
      "description": "Exercitation exercitation in cillum ullamco cupidatat laborum. Adipisicing minim dolore aliqua qui qui ex. Ipsum nostrud sint tempor mollit ad pariatur. Ex laboris proident ex fugiat do adipisicing occaecat amet culpa ipsum aliqua. Enim deserunt reprehenderit occaecat laboris id non aliqua qui ex ex et.\r\n",
      "tags": [
        "excepteur",
        "nostrud",
        "ea",
        "do",
        "commodo",
        "culpa",
        "cupidatat"
      ],
      "rating": 0,
      "createdAt": "2021-03-20T02:55:15 -03:00",
      "picture": "http://placehold.it/32x32"
    },
    {
      "id": "60688ef4a833b05d71070399",
      "author": "60688ef40ec128836e2406fd",
      "name": "duis pariatur laboris",
      "description": "Id labore tempor minim laboris non fugiat aliqua. Duis id eiusmod non irure velit voluptate ipsum. Non elit anim velit incididunt nisi consequat mollit eiusmod cillum incididunt ad proident magna.\r\n",
      "tags": [
        "anim",
        "excepteur",
        "labore",
        "aliquip",
        "quis",
        "ex"
      ],
      "rating": 4,
      "createdAt": "2020-02-02T12:52:39 -03:00",
      "picture": "http://placehold.it/32x32"
    },
    {
      "id": "60688ef423fd94bae6c944f1",
      "author": "60688ef4d6a1eebd45f1b041",
      "name": "enim in reprehenderit",
      "description": "Laboris minim est culpa aute laborum officia voluptate in quis labore laboris amet. Reprehenderit elit incididunt nostrud cillum nulla cupidatat id tempor sunt non officia sunt. Cupidatat ex aute irure magna Lorem do. Ipsum esse labore veniam non laboris consectetur dolor fugiat nostrud tempor. Consequat enim cillum laboris esse et et Lorem pariatur irure ad incididunt deserunt ipsum.\r\n",
      "tags": [
        "do",
        "voluptate",
        "et",
        "deserunt"
      ],
      "rating": 3,
      "createdAt": "2020-11-03T04:14:21 -03:00",
      "picture": "http://placehold.it/32x32"
    },
    {
      "id": "60688ef4c2ff4617c5b0d860",
      "author": "60688ef4bc6e3b32f3918e85",
      "name": "veniam adipisicing in",
      "description": "Cillum qui reprehenderit ad adipisicing velit excepteur labore amet duis ut enim voluptate tempor voluptate. Fugiat amet id commodo sit labore irure velit. Adipisicing nulla laboris nisi pariatur qui incididunt nisi enim mollit cupidatat ipsum pariatur. Velit officia do occaecat eu est nostrud deserunt. Cupidatat amet do ex Lorem id veniam nulla dolor dolor deserunt id amet mollit. Dolore Lorem in incididunt culpa anim. Ut officia reprehenderit duis consectetur veniam tempor cillum reprehenderit ea et magna aute labore.\r\n",
      "tags": [
        "laboris",
        "nostrud",
        "nulla"
      ],
      "rating": 4,
      "createdAt": "2020-05-31T07:53:39 -03:00",
      "picture": "http://placehold.it/32x32"
    },
    {
      "id": "60688ef47381978a72ecd6dd",
      "author": "60688ef427ce0227f9ca04e0",
      "name": "commodo sit occaecat",
      "description": "Id quis amet exercitation nulla fugiat est cillum tempor consequat. Ipsum ea aute Lorem in id quis. Nostrud consectetur ex quis sunt aliquip voluptate ea et aliqua irure dolore occaecat reprehenderit.\r\n",
      "tags": [
        "tempor",
        "laboris",
        "enim",
        "proident",
        "esse",
        "duis"
      ],
      "rating": 1,
      "createdAt": "2020-07-02T10:24:00 -03:00",
      "picture": "http://placehold.it/32x32"
    },
    {
      "id": "60688ef45c7c15b6f2c590fc",
      "author": "60688ef4271262a48ed735ea",
      "name": "deserunt do tempor",
      "description": "Aute ad magna amet cillum ullamco mollit ut aute qui irure eu adipisicing. In sunt consequat minim occaecat sit id sint. Laborum Lorem aliqua officia dolor. Anim pariatur tempor aliqua ex incididunt exercitation. Dolore voluptate exercitation proident cupidatat duis nulla. Eu sit esse adipisicing duis sint sint sunt consequat minim ut aliquip incididunt consectetur. Nostrud reprehenderit velit ut ut dolor.\r\n",
      "tags": [
        "ad"
      ],
      "rating": 1,
      "createdAt": "2020-12-19T06:49:58 -03:00",
      "picture": "http://placehold.it/32x32"
    },
    {
      "id": "60688ef4b38cc8d97e999ca9",
      "author": "60688ef42bb0c8f3f2f557cd",
      "name": "quis laboris in",
      "description": "Tempor enim sit ad sunt ipsum aute est consequat voluptate officia. Deserunt sit sunt eiusmod elit ea culpa laborum amet irure ea. Mollit culpa adipisicing occaecat ad. Irure pariatur duis cupidatat mollit sint. Ipsum duis fugiat magna sit.\r\n",
      "tags": [
        "in",
        "id",
        "occaecat",
        "proident",
        "ad",
        "laboris",
        "voluptate"
      ],
      "rating": 5,
      "createdAt": "2021-02-15T08:20:01 -03:00",
      "picture": "http://placehold.it/32x32"
    },
    {
      "id": "60688ef41fad11cd3050031c",
      "author": "60688ef46365092ddddb9e5b",
      "name": "labore magna nisi",
      "description": "Dolor in magna occaecat sint laborum. Quis eiusmod amet ad aliquip sint do Lorem aute veniam. Do velit ex laboris in ipsum dolore velit ut qui. Culpa amet do eu eiusmod quis duis qui ullamco culpa laborum. Ipsum ipsum elit minim in incididunt consequat.\r\n",
      "tags": [
        "do"
      ],
      "rating": 2,
      "createdAt": "2020-03-26T08:20:07 -03:00",
      "picture": "http://placehold.it/32x32"
    },
    {
      "id": "60688ef48f51b6db1cb0b70c",
      "author": "60688ef493f0ed46e14c3843",
      "name": "dolore minim est",
      "description": "Culpa labore nisi magna laboris dolore irure. Quis laborum dolore do culpa exercitation aliqua eu ex. Ex qui tempor Lorem ex officia nostrud nisi dolor sint commodo. Culpa deserunt deserunt pariatur non elit mollit quis do consectetur consequat dolore nisi Lorem. Incididunt ad cillum nulla minim sint consectetur.\r\n",
      "tags": [
        "cillum",
        "laborum",
        "ut"
      ],
      "rating": 1,
      "createdAt": "2020-10-22T01:07:34 -03:00",
      "picture": "http://placehold.it/32x32"
    },
    {
      "id": "60688ef40a8da9a80716a896",
      "author": "60688ef4235a495fcf373f8c",
      "name": "mollit consectetur dolore",
      "description": "Esse culpa anim duis do nisi consectetur. Aliqua consectetur dolor exercitation eu proident. Velit cillum in incididunt aute ex veniam qui. Reprehenderit ad aute duis cupidatat cillum ad enim voluptate incididunt.\r\n",
      "tags": [
        "eiusmod",
        "cillum"
      ],
      "rating": 4,
      "createdAt": "2020-07-26T11:16:53 -03:00",
      "picture": "http://placehold.it/32x32"
    },
    {
      "id": "60688ef45aa6eb3e9fbdc30a",
      "author": "60688ef4438964ff0d0fc596",
      "name": "sint commodo commodo",
      "description": "Nulla minim culpa laboris cillum aliquip. Laboris ut reprehenderit consectetur nisi elit velit. Non do nisi ut ullamco qui elit nulla ipsum labore nostrud et adipisicing officia minim. Sunt tempor exercitation enim consequat esse ea elit adipisicing ea excepteur nisi. Eiusmod quis elit enim excepteur dolor quis excepteur minim in ad.\r\n",
      "tags": [
        "culpa",
        "ad",
        "magna"
      ],
      "rating": 2,
      "createdAt": "2021-02-14T09:31:42 -03:00",
      "picture": "http://placehold.it/32x32"
    }
  ],
  "comments": [
    { "id": 1, "body": "some comment", "postId": 1 }
  ],
  "profile": { "name": "typicode" }
}
